%YAML 1.1
%TAG !u! tag:unity3d.com,2011:
--- !u!78 &1
TagManager:
  serializedVersion: 2
  tags:
  - FlapButton
  - Background
  - Ground
  - Pipe
  - PipeHolder
  layers:
  - Default
  - TransparentFX
  - Ignore Raycast
  - 
  - Water
  - UI
  - 
  - 
  - Player
  - Enemy
  - BGCollector
  - Background
  - Ground
  - Pipe
  - PipeCollector
  - PipeHolder
  - 
  - 
  - 
  - 
  - 
  - 
  - 
  - 
  - 
  - 
  - 
  - 
  - 
  - 
  - 
  - 
  m_SortingLayers:
  - name: Default
    uniqueID: 0
    locked: 0
  - name: Background
    uniqueID: 1201149367
    locked: 0
  - name: Ground
    uniqueID: 463830803
    locked: 0
  - name: Pipe
    uniqueID: 2952090975
    locked: 0
  - name: Bird
    uniqueID: 2192081021
    locked: 0
  - name: Canvas
    uniqueID: 1892724549
    locked: 0
